\relax 
\providecommand\hyper@newdestlabel[2]{}
\citation{barePCBdefect}
\citation{barePCBdefect}
\@writefile{toc}{\contentsline {chapter}{\numberline {3}PCB defects}{22}{chapter.32}}
\@writefile{toc}{\contentsline {section}{\numberline {3.1}Bare PCB defects}{22}{section.33}}
\newlabel{bareDefects}{{3.1}{22}{Bare PCB defects}{section.33}{}}
\citation{barePCBdefect}
\@writefile{lof}{\contentsline {figure}{\numberline {3.1}{\ignorespaces Classification of the bare PCB defects \cite  {barePCBdefect}}}{23}{figure.34}}
\newlabel{fig:barePCBdefectTable}{{3.1}{23}{Classification of the bare PCB defects \cite {barePCBdefect}}{figure.34}{}}
\@writefile{lof}{\contentsline {figure}{\numberline {3.2}{\ignorespaces Example of bare PCB defects \cite  {barePCBdefect}}}{23}{figure.35}}
\newlabel{fig:barePCBdefectIMG}{{3.2}{23}{Example of bare PCB defects \cite {barePCBdefect}}{figure.35}{}}
\citation{blog_AssemblyDefects}
\citation{openSolderJointQFN}
\@writefile{toc}{\contentsline {section}{\numberline {3.2}Assembly defects}{24}{section.36}}
\newlabel{assemblyDefects}{{3.2}{24}{Assembly defects}{section.36}{}}
\@writefile{toc}{\contentsline {subsection}{\numberline {3.2.1}Open Solder Joints}{24}{subsection.37}}
\citation{shortBGA}
\@writefile{lof}{\contentsline {figure}{\numberline {3.3}{\ignorespaces Open solder joints of the QFN package \cite  {openSolderJointQFN}}}{25}{figure.38}}
\newlabel{fig:openSolderJoint}{{3.3}{25}{Open solder joints of the QFN package \cite {openSolderJointQFN}}{figure.38}{}}
\@writefile{toc}{\contentsline {subsection}{\numberline {3.2.2}Solder bridges (shorts)}{25}{subsection.39}}
\@writefile{lof}{\contentsline {figure}{\numberline {3.4}{\ignorespaces Solder bridge of two solder balls \cite  {shortBGA}}}{25}{figure.40}}
\newlabel{fig:shortBGA}{{3.4}{25}{Solder bridge of two solder balls \cite {shortBGA}}{figure.40}{}}
\citation{Tombstone}
\@writefile{toc}{\contentsline {subsection}{\numberline {3.2.3}Component Shift}{26}{subsection.41}}
\@writefile{lof}{\contentsline {figure}{\numberline {3.5}{\ignorespaces Shifted component}}{26}{figure.42}}
\newlabel{fig:shiftedComponent}{{3.5}{26}{Shifted component}{figure.42}{}}
\@writefile{toc}{\contentsline {subsection}{\numberline {3.2.4}Tombstone}{26}{subsection.43}}
\AC@undonewlabel{acro:SMT}
\newlabel{acro:SMT}{{3.2.4}{26}{Tombstone}{subsection.43}{}}
\acronymused{SMT}
\@writefile{lof}{\contentsline {figure}{\numberline {3.6}{\ignorespaces Tombstone \cite  {Tombstone}}}{27}{figure.44}}
\newlabel{fig:tombleStoneDefect}{{3.6}{27}{Tombstone \cite {Tombstone}}{figure.44}{}}
\@writefile{toc}{\contentsline {subsection}{\numberline {3.2.5}BGA Voids}{27}{subsection.45}}
\@writefile{lof}{\contentsline {figure}{\numberline {3.7}{\ignorespaces Voids inside the solder balls}}{28}{figure.46}}
\newlabel{fig:bgaVoidsDef}{{3.7}{28}{Voids inside the solder balls}{figure.46}{}}
\@setckpt{text/defects}{
\setcounter{page}{29}
\setcounter{equation}{0}
\setcounter{enumi}{7}
\setcounter{enumii}{0}
\setcounter{enumiii}{0}
\setcounter{enumiv}{0}
\setcounter{footnote}{0}
\setcounter{mpfootnote}{0}
\setcounter{part}{0}
\setcounter{chapter}{3}
\setcounter{section}{2}
\setcounter{subsection}{5}
\setcounter{subsubsection}{0}
\setcounter{paragraph}{0}
\setcounter{subparagraph}{0}
\setcounter{figure}{7}
\setcounter{table}{0}
\setcounter{float@type}{8}
\setcounter{Item}{7}
\setcounter{Hfootnote}{2}
\setcounter{bookmark@seq@number}{17}
\setcounter{AM@survey}{0}
\setcounter{@todonotes@numberoftodonotes}{0}
\setcounter{lstnumber}{1}
\setcounter{section@level}{2}
\setcounter{lstlisting}{0}
}
