\relax 
\providecommand\hyper@newdestlabel[2]{}
\citation{OpenCV-thresh}
\@writefile{toc}{\contentsline {chapter}{\numberline {6}Implementation}{36}{chapter.66}}
\@writefile{toc}{\contentsline {section}{\numberline {6.1}BGA void detection}{36}{section.67}}
\newlabel{BGAvoidDetection}{{6.1}{36}{BGA void detection}{section.67}{}}
\@writefile{lof}{\contentsline {figure}{\numberline {6.1}{\ignorespaces Example of the voids on the x-ray image}}{36}{figure.68}}
\newlabel{fig:voids-example}{{6.1}{36}{Example of the voids on the x-ray image}{figure.68}{}}
\@writefile{toc}{\contentsline {subsection}{\numberline {6.1.1}Solder ball segmentation}{36}{subsection.69}}
\@writefile{lof}{\contentsline {figure}{\numberline {6.2}{\ignorespaces Histogram of gray scaled xray image}}{37}{figure.70}}
\newlabel{fig:OTSU}{{6.2}{37}{Histogram of gray scaled xray image}{figure.70}{}}
\citation{paper-No.17}
\citation{paper-No.16}
\@writefile{lot}{\contentsline {table}{\numberline {6.1}{\ignorespaces Comparison of the Hough transform method and the Boundary Rectangles method }}{39}{table.80}}
\newlabel{table:houghVSboundary}{{6.1}{39}{Comparison of the Hough transform method and the Boundary Rectangles method}{table.80}{}}
\@writefile{lof}{\contentsline {figure}{\numberline {6.3}{\ignorespaces Step by step process of the solder ball segmentation using the \textit  {BoundaryRectangle} method}}{41}{figure.84}}
\newlabel{fig:SolderBallSegmentationBoundaryRectangles}{{6.3}{41}{Step by step process of the solder ball segmentation using the \textit {BoundaryRectangle} method}{figure.84}{}}
\@writefile{lof}{\contentsline {figure}{\numberline {6.4}{\ignorespaces Step by step process of the solder ball segmentation using the \textit  {HoughtCircles} method}}{42}{figure.85}}
\newlabel{fig:SolderBallSegmentationHoughtCircles}{{6.4}{42}{Step by step process of the solder ball segmentation using the \textit {HoughtCircles} method}{figure.85}{}}
\@writefile{toc}{\contentsline {subsection}{\numberline {6.1.2}Void area calculation}{42}{subsection.86}}
\newlabel{voidCalculation}{{6.1.2}{42}{Void area calculation}{subsection.86}{}}
\AC@undonewlabel{acro:CLAHE}
\newlabel{acro:CLAHE}{{6.1.2}{44}{Void area calculation}{Item.94}{}}
\acronymused{CLAHE}
\@writefile{lof}{\contentsline {figure}{\numberline {6.5}{\ignorespaces Image processing steps of the void segmentation}}{44}{figure.95}}
\newlabel{fig:voidDetectionProcess}{{6.5}{44}{Image processing steps of the void segmentation}{figure.95}{}}
\@writefile{lof}{\contentsline {figure}{\numberline {6.6}{\ignorespaces The result of the void segmentation}}{45}{figure.96}}
\newlabel{fig:voidsResult}{{6.6}{45}{The result of the void segmentation}{figure.96}{}}
\@writefile{toc}{\contentsline {subsection}{\numberline {6.1.3}Program usage}{45}{subsection.97}}
\@writefile{lol}{\contentsline {lstlisting}{\numberline {6.1}Solderball segmentation and void detection}{46}{lstlisting.98}}
\@writefile{lof}{\contentsline {figure}{\numberline {6.7}{\ignorespaces Flowchart of the find-circle method}}{47}{figure.114}}
\newlabel{fig:find-circles}{{6.7}{47}{Flowchart of the find-circle method}{figure.114}{}}
\citation{Wiki-qfn-package}
\citation{Atmel-documentation}
\@writefile{lof}{\contentsline {figure}{\numberline {6.8}{\ignorespaces Flowchart of void ratio calculation}}{48}{figure.115}}
\newlabel{fig:void-ratio}{{6.8}{48}{Flowchart of void ratio calculation}{figure.115}{}}
\@writefile{tdo}{\contentsline {todo}{\color@fb@x {}{black}{}{orange}{\leavevmode {\color  {orange}o}}\ Jsou ty vyvojove diagramy k necemu? nebo je mam smazat?}{48}{section*.116}}
\@writefile{toc}{\contentsline {subsection}{\numberline {6.1.4}Conclusion}{48}{subsection.117}}
\@writefile{tdo}{\contentsline {todo}{\color@fb@x {}{black}{}{orange}{\leavevmode {\color  {orange}o}}\ Je treba napsat nejaky zaver ke kazde metode? nebo staci souhrne zhodnoceni na konci?}{48}{section*.118}}
\@writefile{toc}{\contentsline {section}{\numberline {6.2}Thermal pad void detection in the QFN package}{49}{section.119}}
\@writefile{lof}{\contentsline {figure}{\numberline {6.9}{\ignorespaces QFN package}}{49}{figure.120}}
\newlabel{fig:qfn-package}{{6.9}{49}{QFN package}{figure.120}{}}
\@writefile{toc}{\contentsline {subsection}{\numberline {6.2.1}QFN package segmentation}{49}{subsection.121}}
\@writefile{lof}{\contentsline {figure}{\numberline {6.10}{\ignorespaces Segmentation of big components on the PCB}}{50}{figure.122}}
\newlabel{fig:qfn-segmentation-big}{{6.10}{50}{Segmentation of big components on the PCB}{figure.122}{}}
\@writefile{lof}{\contentsline {figure}{\numberline {6.11}{\ignorespaces Visualization of intersections of the pins and the center of the component}}{51}{figure.126}}
\newlabel{fig:qfn-intersections}{{6.11}{51}{Visualization of intersections of the pins and the center of the component}{figure.126}{}}
\@writefile{toc}{\contentsline {subsection}{\numberline {6.2.2}QFN void detection}{52}{subsection.136}}
\@writefile{lof}{\contentsline {figure}{\numberline {6.12}{\ignorespaces Arrows pointing at three out of nine vias on under the QFN package}}{52}{figure.137}}
\newlabel{fig:qfn-vias}{{6.12}{52}{Arrows pointing at three out of nine vias on under the QFN package}{figure.137}{}}
\@writefile{lof}{\contentsline {figure}{\numberline {6.13}{\ignorespaces Detected voids inside QFN package}}{53}{figure.138}}
\newlabel{fig:QFNvoids}{{6.13}{53}{Detected voids inside QFN package}{figure.138}{}}
\@writefile{lof}{\contentsline {figure}{\numberline {6.14}{\ignorespaces Result of the void detection}}{54}{figure.139}}
\newlabel{fig:QFNvoids}{{6.14}{54}{Result of the void detection}{figure.139}{}}
\@writefile{toc}{\contentsline {subsection}{\numberline {6.2.3}Program usage}{54}{subsection.140}}
\citation{wiki-gerber}
\citation{modelBasedInspection}
\@writefile{lol}{\contentsline {lstlisting}{\numberline {6.2}Solderball segmentation and void detection}{55}{lstlisting.141}}
\@writefile{toc}{\contentsline {section}{\numberline {6.3}Image subtraction}{55}{section.161}}
\newlabel{imageSubtraction}{{6.3}{55}{Image subtraction}{section.161}{}}
\@writefile{lof}{\contentsline {figure}{\numberline {6.15}{\ignorespaces Example of the XOR subtraction \cite  {modelBasedInspection}}}{56}{figure.162}}
\newlabel{fig:XOR-comparison}{{6.15}{56}{Example of the XOR subtraction \cite {modelBasedInspection}}{figure.162}{}}
\@writefile{lof}{\contentsline {figure}{\numberline {6.16}{\ignorespaces Image subtraction}}{56}{figure.163}}
\newlabel{fig:image-subtraction}{{6.16}{56}{Image subtraction}{figure.163}{}}
\citation{Modelbased-inspection}
\citation{opencv-eec}
\citation{opencv-eec}
\@writefile{toc}{\contentsline {subsection}{\numberline {6.3.1}Image alignment}{57}{subsection.166}}
\@writefile{lof}{\contentsline {figure}{\numberline {6.17}{\ignorespaces Motions models \cite  {opencv-eec}}}{57}{figure.171}}
\newlabel{fig:motion-models}{{6.17}{57}{Motions models \cite {opencv-eec}}{figure.171}{}}
\citation{opencv-eec}
\citation{opencv-eec-documentation}
\citation{opencv-homography}
\@writefile{lof}{\contentsline {figure}{\numberline {6.18}{\ignorespaces Alignment of two PCBs}}{60}{figure.183}}
\newlabel{fig:PCBalignmentTwo}{{6.18}{60}{Alignment of two PCBs}{figure.183}{}}
\@writefile{toc}{\contentsline {subsection}{\numberline {6.3.2}Defect classification}{60}{subsection.184}}
\@writefile{lof}{\contentsline {figure}{\numberline {6.19}{\ignorespaces Classification of the image subtraction}}{61}{figure.185}}
\newlabel{fig:imageSubtractionClass}{{6.19}{61}{Classification of the image subtraction}{figure.185}{}}
\@writefile{toc}{\contentsline {subsection}{\numberline {6.3.3}Program usage}{61}{subsection.186}}
\@writefile{lol}{\contentsline {lstlisting}{\numberline {6.3}Solderball segmentation and void detection}{62}{lstlisting.187}}
\@setckpt{text/implementation}{
\setcounter{page}{63}
\setcounter{equation}{2}
\setcounter{enumi}{6}
\setcounter{enumii}{0}
\setcounter{enumiii}{0}
\setcounter{enumiv}{0}
\setcounter{footnote}{1}
\setcounter{mpfootnote}{0}
\setcounter{part}{0}
\setcounter{chapter}{6}
\setcounter{section}{3}
\setcounter{subsection}{3}
\setcounter{subsubsection}{0}
\setcounter{paragraph}{0}
\setcounter{subparagraph}{0}
\setcounter{figure}{19}
\setcounter{table}{1}
\setcounter{float@type}{8}
\setcounter{Item}{59}
\setcounter{Hfootnote}{3}
\setcounter{bookmark@seq@number}{42}
\setcounter{AM@survey}{0}
\setcounter{@todonotes@numberoftodonotes}{3}
\setcounter{lstnumber}{28}
\setcounter{section@level}{2}
\setcounter{lstlisting}{3}
}
