\relax 
\providecommand\hyper@newdestlabel[2]{}
\@writefile{toc}{\contentsline {chapter}{\numberline {1}Introduction}{11}{chapter.5}}
\AC@undonewlabel{acro:PCBs}
\newlabel{acro:PCBs}{{1}{11}{Introduction}{chapter.5}{}}
\acronymused{PCBs}
\acronymused{PCBs}
\AC@undonewlabel{acro:PCB}
\newlabel{acro:PCB}{{1}{11}{Introduction}{chapter.5}{}}
\acronymused{PCB}
\AC@undonewlabel{acro:BGA}
\newlabel{acro:BGA}{{1}{11}{Introduction}{chapter.5}{}}
\acronymused{BGA}
\@writefile{toc}{\contentsline {section}{\numberline {1.1}Inspection methods}{11}{section.7}}
\citation{visualInspection}
\citation{SPI-metody}
\acronymused{PCB}
\@writefile{lof}{\contentsline {figure}{\numberline {1.1}{\ignorespaces Example of visual inspection \cite  {visualInspection}}}{12}{figure.9}}
\newlabel{fig:visualInspection}{{1.1}{12}{Example of visual inspection \cite {visualInspection}}{figure.9}{}}
\citation{ICTtesting}
\citation{ICTtesting}
\acronymused{PCB}
\acronymused{PCBs}
\@writefile{lof}{\contentsline {figure}{\numberline {1.2}{\ignorespaces Flying probe test \cite  {ICTtesting}}}{14}{figure.14}}
\newlabel{fig:flyingPropeTest}{{1.2}{14}{Flying probe test \cite {ICTtesting}}{figure.14}{}}
\@writefile{lof}{\contentsline {figure}{\numberline {1.3}{\ignorespaces Needle bed test \cite  {ICTtesting}}}{14}{figure.15}}
\newlabel{fig:needleBedTest}{{1.3}{14}{Needle bed test \cite {ICTtesting}}{figure.15}{}}
\AC@undonewlabel{acro:AOI}
\newlabel{acro:AOI}{{6}{14}{Inspection methods}{Item.16}{}}
\acronymused{AOI}
\AC@undonewlabel{acro:CCD}
\newlabel{acro:CCD}{{6}{14}{Inspection methods}{Item.16}{}}
\acronymused{CCD}
\acronymused{PCB}
\acronymused{PCB}
\citation{CtBGAImage}
\acronymused{AOI}
\acronymused{PCB}
\acronymused{AOI}
\@writefile{lof}{\contentsline {figure}{\numberline {1.4}{\ignorespaces CT scan of the BGA \cite  {CtBGAImage}}}{15}{figure.18}}
\newlabel{fig:BGA_3D}{{1.4}{15}{CT scan of the BGA \cite {CtBGAImage}}{figure.18}{}}
\@writefile{toc}{\contentsline {section}{\numberline {1.2}The best inspection method}{15}{section.19}}
\citation{Inspection-methods-comparison}
\citation{Inspection-methods-comparison}
\@writefile{lot}{\contentsline {table}{\numberline {1.1}{\ignorespaces When each inspection method was used}}{16}{table.20}}
\newlabel{tab:ManufactureSteps}{{1.1}{16}{When each inspection method was used}{table.20}{}}
\@writefile{lof}{\contentsline {figure}{\numberline {1.5}{\ignorespaces Number of defects found by each method \cite  {Inspection-methods-comparison}}}{16}{figure.21}}
\newlabel{fig:inspection}{{1.5}{16}{Number of defects found by each method \cite {Inspection-methods-comparison}}{figure.21}{}}
\@writefile{toc}{\contentsline {section}{\numberline {1.3}Computer vision}{17}{section.22}}
\@writefile{toc}{\contentsline {section}{\numberline {1.4}What is defect?}{17}{section.23}}
\@setckpt{text/introduction}{
\setcounter{page}{18}
\setcounter{equation}{0}
\setcounter{enumi}{7}
\setcounter{enumii}{0}
\setcounter{enumiii}{0}
\setcounter{enumiv}{0}
\setcounter{footnote}{1}
\setcounter{mpfootnote}{0}
\setcounter{part}{0}
\setcounter{chapter}{1}
\setcounter{section}{4}
\setcounter{subsection}{0}
\setcounter{subsubsection}{0}
\setcounter{paragraph}{0}
\setcounter{subparagraph}{0}
\setcounter{figure}{5}
\setcounter{table}{1}
\setcounter{float@type}{8}
\setcounter{Item}{7}
\setcounter{Hfootnote}{1}
\setcounter{bookmark@seq@number}{5}
\setcounter{AM@survey}{0}
\setcounter{@todonotes@numberoftodonotes}{0}
\setcounter{lstnumber}{1}
\setcounter{section@level}{1}
\setcounter{lstlisting}{0}
}
