\relax 
\providecommand\hyper@newdestlabel[2]{}
\bibcite{blog_AssemblyDefects}{1}
\bibcite{blog_AssemblyDefects_Thomblestone}{2}
\bibcite{documentation_MEX}{3}
\bibcite{MATLAB_licence}{4}
\bibcite{blog_languageComparasion}{5}
\bibcite{paper-No.17}{6}
\bibcite{paper-No.16}{7}
\bibcite{paper-No.24}{8}
\bibcite{wiki-gerber}{9}
\@writefile{toc}{\contentsline {chapter}{Bibliography}{65}{section*.217}}
\bibcite{Modelbased-inspection}{10}
\bibcite{OpenCV-thresh}{11}
\bibcite{Wiki-qfn-package}{12}
\bibcite{Atmel-documentation}{13}
\bibcite{opencv-eec}{14}
\bibcite{opencv-eec-documentation}{15}
\bibcite{opencv-homography}{16}
\bibcite{SPI-metody}{17}
\bibcite{Inspection-methods-comparison}{18}
\bibcite{xray-general}{19}
\bibcite{CT-scan}{20}
\bibcite{CT-scan-image}{21}
\bibcite{barePCBdefect}{22}
\bibcite{defectTypes}{23}
\bibcite{modelBasedInspection}{24}
\bibcite{visualInspection}{25}
\bibcite{ICTtesting}{26}
\bibcite{CtBGAImage}{27}
\bibcite{openSolderJointQFN}{28}
\bibcite{Tombstone}{29}
\@setckpt{text/literatura}{
\setcounter{page}{70}
\setcounter{equation}{0}
\setcounter{enumi}{6}
\setcounter{enumii}{0}
\setcounter{enumiii}{0}
\setcounter{enumiv}{29}
\setcounter{footnote}{0}
\setcounter{mpfootnote}{0}
\setcounter{part}{0}
\setcounter{chapter}{7}
\setcounter{section}{0}
\setcounter{subsection}{0}
\setcounter{subsubsection}{0}
\setcounter{paragraph}{0}
\setcounter{subparagraph}{0}
\setcounter{figure}{0}
\setcounter{table}{0}
\setcounter{float@type}{8}
\setcounter{Item}{59}
\setcounter{Hfootnote}{3}
\setcounter{bookmark@seq@number}{44}
\setcounter{AM@survey}{0}
\setcounter{@todonotes@numberoftodonotes}{3}
\setcounter{lstnumber}{28}
\setcounter{section@level}{0}
\setcounter{lstlisting}{0}
}
