\relax 
\providecommand\hyper@newdestlabel[2]{}
\citation{defectTypes}
\@writefile{toc}{\contentsline {chapter}{\numberline {5}Defect detection methods}{33}{chapter.53}}
\newlabel{detectionMethods}{{5}{33}{Defect detection methods}{chapter.53}{}}
\@writefile{lof}{\contentsline {figure}{\numberline {5.1}{\ignorespaces Automatic PCB inspection methods \cite  {defectTypes}}}{33}{figure.54}}
\newlabel{fig:PCB-inspection}{{5.1}{33}{Automatic PCB inspection methods \cite {defectTypes}}{figure.54}{}}
\@writefile{toc}{\contentsline {section}{\numberline {5.1}Reference comparison}{33}{section.55}}
\@writefile{toc}{\contentsline {section}{\numberline {5.2}Non-reference comparison}{34}{section.62}}
\@writefile{toc}{\contentsline {section}{\numberline {5.3}Hybrid inspection}{35}{section.63}}
\@writefile{toc}{\contentsline {section}{\numberline {5.4}Machine Learnig/ Neural networks/Data mining}{35}{section.64}}
\@writefile{tdo}{\contentsline {todo}{\color@fb@x {}{black}{}{orange}{\leavevmode {\color  {orange}o}}\ Mo\IeC {\v z}n\IeC {\'a} zbyte\IeC {\v c}n\IeC {\'y}?}{35}{section*.65}}
\@setckpt{text/methods}{
\setcounter{page}{36}
\setcounter{equation}{0}
\setcounter{enumi}{6}
\setcounter{enumii}{0}
\setcounter{enumiii}{0}
\setcounter{enumiv}{0}
\setcounter{footnote}{0}
\setcounter{mpfootnote}{0}
\setcounter{part}{0}
\setcounter{chapter}{5}
\setcounter{section}{4}
\setcounter{subsection}{0}
\setcounter{subsubsection}{0}
\setcounter{paragraph}{0}
\setcounter{subparagraph}{0}
\setcounter{figure}{1}
\setcounter{table}{0}
\setcounter{float@type}{8}
\setcounter{Item}{13}
\setcounter{Hfootnote}{2}
\setcounter{bookmark@seq@number}{28}
\setcounter{AM@survey}{0}
\setcounter{@todonotes@numberoftodonotes}{1}
\setcounter{lstnumber}{1}
\setcounter{section@level}{1}
\setcounter{lstlisting}{0}
}
