\relax 
\providecommand\hyper@newdestlabel[2]{}
\@setckpt{text/prilohy}{
\setcounter{page}{72}
\setcounter{equation}{0}
\setcounter{enumi}{6}
\setcounter{enumii}{0}
\setcounter{enumiii}{0}
\setcounter{enumiv}{29}
\setcounter{footnote}{0}
\setcounter{mpfootnote}{0}
\setcounter{part}{0}
\setcounter{chapter}{0}
\setcounter{section}{0}
\setcounter{subsection}{0}
\setcounter{subsubsection}{0}
\setcounter{paragraph}{0}
\setcounter{subparagraph}{0}
\setcounter{figure}{0}
\setcounter{table}{0}
\setcounter{float@type}{8}
\setcounter{Item}{59}
\setcounter{Hfootnote}{3}
\setcounter{bookmark@seq@number}{46}
\setcounter{AM@survey}{0}
\setcounter{@todonotes@numberoftodonotes}{3}
\setcounter{lstnumber}{28}
\setcounter{section@level}{0}
\setcounter{lstlisting}{0}
}
