\relax 
\providecommand\hyper@newdestlabel[2]{}
\citation{MATLAB_licence}
\citation{documentation_MEX}
\citation{blog_languageComparasion}
\@writefile{toc}{\contentsline {chapter}{\numberline {4}Programming languages for computer vision}{29}{chapter.47}}
\@writefile{toc}{\contentsline {section}{\numberline {4.1}Matlab}{29}{section.48}}
\@writefile{toc}{\contentsline {section}{\numberline {4.2}C++}{30}{section.49}}
\@writefile{toc}{\contentsline {section}{\numberline {4.3}C sharp}{30}{section.50}}
\citation{blog_languageComparasion}
\@writefile{toc}{\contentsline {section}{\numberline {4.4}Python}{31}{section.51}}
\@writefile{toc}{\contentsline {section}{\numberline {4.5}Why Python?}{31}{section.52}}
\@setckpt{text/programming_languages}{
\setcounter{page}{33}
\setcounter{equation}{0}
\setcounter{enumi}{7}
\setcounter{enumii}{0}
\setcounter{enumiii}{0}
\setcounter{enumiv}{0}
\setcounter{footnote}{0}
\setcounter{mpfootnote}{0}
\setcounter{part}{0}
\setcounter{chapter}{4}
\setcounter{section}{5}
\setcounter{subsection}{0}
\setcounter{subsubsection}{0}
\setcounter{paragraph}{0}
\setcounter{subparagraph}{0}
\setcounter{figure}{0}
\setcounter{table}{0}
\setcounter{float@type}{8}
\setcounter{Item}{7}
\setcounter{Hfootnote}{2}
\setcounter{bookmark@seq@number}{23}
\setcounter{AM@survey}{0}
\setcounter{@todonotes@numberoftodonotes}{0}
\setcounter{lstnumber}{1}
\setcounter{section@level}{1}
\setcounter{lstlisting}{0}
}
