\relax 
\providecommand\hyper@newdestlabel[2]{}
\citation{xray-general}
\citation{paper-No.24}
\@writefile{toc}{\contentsline {chapter}{\numberline {2}Automated X-ray inspection}{18}{chapter.24}}
\@writefile{toc}{\contentsline {section}{\numberline {2.1}Basic properties of x-ray images of PCB}{18}{section.25}}
\acronymused{BGA}
\@writefile{lot}{\contentsline {table}{\numberline {2.1}{\ignorespaces Specifications of the SCIOX SMT from ELEDUS}}{19}{table.27}}
\newlabel{my-label}{{2.1}{19}{Specifications of the SCIOX SMT from ELEDUS}{table.27}{}}
\@writefile{toc}{\contentsline {section}{\numberline {2.2}3D X-ray Computer Tomography }{19}{section.28}}
\citation{CT-scan}
\@writefile{lof}{\contentsline {figure}{\numberline {2.1}{\ignorespaces Computed tomography setup \cite  {CT-scan}}}{20}{figure.29}}
\newlabel{fig:CT-model}{{2.1}{20}{Computed tomography setup \cite {CT-scan}}{figure.29}{}}
\@writefile{toc}{\contentsline {section}{\numberline {2.3}AXI technology features}{20}{section.30}}
\citation{CT-scan-image}
\@writefile{lof}{\contentsline {figure}{\numberline {2.2}{\ignorespaces CT reconstruction of BGA \cite  {CT-scan-image}}}{21}{figure.31}}
\newlabel{fig:IC-heel}{{2.2}{21}{CT reconstruction of BGA \cite {CT-scan-image}}{figure.31}{}}
\@setckpt{text/xray_images}{
\setcounter{page}{22}
\setcounter{equation}{0}
\setcounter{enumi}{7}
\setcounter{enumii}{0}
\setcounter{enumiii}{0}
\setcounter{enumiv}{0}
\setcounter{footnote}{1}
\setcounter{mpfootnote}{0}
\setcounter{part}{0}
\setcounter{chapter}{2}
\setcounter{section}{3}
\setcounter{subsection}{0}
\setcounter{subsubsection}{0}
\setcounter{paragraph}{0}
\setcounter{subparagraph}{0}
\setcounter{figure}{2}
\setcounter{table}{1}
\setcounter{float@type}{8}
\setcounter{Item}{7}
\setcounter{Hfootnote}{2}
\setcounter{bookmark@seq@number}{9}
\setcounter{AM@survey}{0}
\setcounter{@todonotes@numberoftodonotes}{0}
\setcounter{lstnumber}{1}
\setcounter{section@level}{1}
\setcounter{lstlisting}{0}
}
