\relax 
\providecommand\hyper@newdestlabel[2]{}
\@writefile{toc}{\contentsline {chapter}{List of symbols, physical constants and abbreviations}{70}{section*.219}}
\newacro{PCB}[\AC@hyperlink{PCB}{PCB}]{printed circuit board}
\newacro{PCBs}[\AC@hyperlink{PCBs}{PCBs}]{printed circuit boards}
\newacro{BGA}[\AC@hyperlink{BGA}{BGA}]{ball grid array}
\newacro{AOI}[\AC@hyperlink{AOI}{AOI}]{automatic optical inspection}
\newacro{CCD}[\AC@hyperlink{CCD}{CCD}]{charge coupled device}
\newacro{AXI}[\AC@hyperlink{AXI}{AXI}]{automatic X-ray inspection}
\newacro{ICT}[\AC@hyperlink{ICT}{ICT}]{ in-circuit test}
\newacro{SPI}[\AC@hyperlink{SPI}{SPI}]{solder paste inspection}
\newacro{FT}[\AC@hyperlink{FT}{FT}]{functional test}
\newacro{SMT}[\AC@hyperlink{SMT}{SMT}]{surface mount technology}
\newacro{CGA}[\AC@hyperlink{CGA}{CGA}]{column grid array}
\newacro{CSP}[\AC@hyperlink{CSP}{CSP}]{chip size package}
\newacro{CLAHE}[\AC@hyperlink{CLAHE}{CLAHE}]{Contrast Limited Adaptive Histogram Equalization}
\@setckpt{text/zkratky}{
\setcounter{page}{71}
\setcounter{equation}{0}
\setcounter{enumi}{6}
\setcounter{enumii}{0}
\setcounter{enumiii}{0}
\setcounter{enumiv}{29}
\setcounter{footnote}{0}
\setcounter{mpfootnote}{0}
\setcounter{part}{0}
\setcounter{chapter}{7}
\setcounter{section}{0}
\setcounter{subsection}{0}
\setcounter{subsubsection}{0}
\setcounter{paragraph}{0}
\setcounter{subparagraph}{0}
\setcounter{figure}{0}
\setcounter{table}{0}
\setcounter{float@type}{8}
\setcounter{Item}{59}
\setcounter{Hfootnote}{3}
\setcounter{bookmark@seq@number}{45}
\setcounter{AM@survey}{0}
\setcounter{@todonotes@numberoftodonotes}{3}
\setcounter{lstnumber}{28}
\setcounter{section@level}{0}
\setcounter{lstlisting}{0}
}
