\select@language {english}
\contentsline {table}{\numberline {1.1}{\ignorespaces When each inspection method was used}}{16}{table.20}
\contentsline {table}{\numberline {2.1}{\ignorespaces Specifications of the SCIOX SMT from ELEDUS}}{19}{table.27}
\contentsline {table}{\numberline {6.1}{\ignorespaces Comparison of the Hough transform method and the Boundary Rectangles method }}{39}{table.80}
