\relax 
\providecommand\hyper@newdestlabel[2]{}
\AC@reset@newl@bel
\providecommand\HyperFirstAtBeginDocument{\AtBeginDocument}
\HyperFirstAtBeginDocument{\ifx\hyper@anchor\@undefined
\global\let\oldcontentsline\contentsline
\gdef\contentsline#1#2#3#4{\oldcontentsline{#1}{#2}{#3}}
\global\let\oldnewlabel\newlabel
\gdef\newlabel#1#2{\newlabelxx{#1}#2}
\gdef\newlabelxx#1#2#3#4#5#6{\oldnewlabel{#1}{{#2}{#3}}}
\AtEndDocument{\ifx\hyper@anchor\@undefined
\let\contentsline\oldcontentsline
\let\newlabel\oldnewlabel
\fi}
\fi}
\global\let\hyper@last\relax 
\gdef\HyperFirstAtBeginDocument#1{#1}
\providecommand\HyField@AuxAddToFields[1]{}
\providecommand\HyField@AuxAddToCoFields[2]{}
\select@language{english}
\@writefile{toc}{\select@language{english}}
\@writefile{lof}{\select@language{english}}
\@writefile{lot}{\select@language{english}}
\citation{visualInspection}
\citation{ICTtesting}
\citation{ICTtesting}
\citation{CtBGAImage}
\citation{Inspection-methods-comparison}
\citation{CT-scan}
\citation{CT-scan-image}
\citation{barePCBdefect}
\citation{barePCBdefect}
\citation{openSolderJointQFN}
\citation{shortBGA}
\citation{Tombstone}
\citation{defectTypes}
\citation{modelBasedInspection}
\citation{opencv-eec}
\@input{text/introduction.aux}
\@input{text/xray_images.aux}
\@input{text/defects.aux}
\@input{text/programming_languages.aux}
\@input{text/methods.aux}
\pgfsyspdfmark {pgfid1}{20495105}{37604093}
\@input{text/implementation.aux}
\pgfsyspdfmark {pgfid2}{20495105}{15201472}
\pgfsyspdfmark {pgfid3}{20495105}{11037212}
\@input{text/conclusion.aux}
\@input{text/literatura.aux}
\@input{text/zkratky.aux}
\@writefile{toc}{\contentsline {chapter}{List of appendices}{71}{section*.221}}
\@input{text/prilohy.aux}
\gdef\pocet@stran{71}
